%YAML 1.1
%TAG !u! tag:unity3d.com,2011:
--- !u!78 &1
TagManager:
  serializedVersion: 2
  tags:
  - OrbitalBody
  - GameControl
  - SceneControl
  - QuestTrackPanel
  - RingBody
  layers:
  - Default
  - TransparentFX
  - Ignore Raycast
  - 
  - Water
  - UI
  - 
  - 
  - PostProcessing
  - OrbitalBody
  - Background Image
  - Payload
  - CargoDoor
  - PickupLug
  - Bullets
  - Vehicle
  - 
  - 
  - 
  - 
  - 
  - 
  - 
  - 
  - 
  - 
  - 
  - 
  - 
  - 
  - 
  - 
  m_SortingLayers:
  - name: Container
    uniqueID: 4018063245
    locked: 0
  - name: Default
    uniqueID: 0
    locked: 0
  - name: Player
    uniqueID: 4206981655
    locked: 0
  - name: Foreground
    uniqueID: 1755648933
    locked: 0
